<svg width="11" height="11" viewBox="0 0 11 11" fill="none" xmlns="http://www.w3.org/2000/svg">
<g style="mix-blend-mode:luminosity">
<path d="M9.13012 4.10254L6.14178 7.09087C5.78887 7.44379 5.21137 7.44379 4.85845 7.09087L1.87012 4.10254" stroke="#1D1D2C" stroke-width="1.5" stroke-miterlimit="10" stroke-linecap="round" stroke-linejoin="round"/>
</g>
</svg>
