<svg width="36" height="36" viewBox="0 0 36 36" fill="none" xmlns="http://www.w3.org/2000/svg">
<path d="M18 33C26.25 33 33 26.25 33 18C33 9.75 26.25 3 18 3C9.75 3 3 9.75 3 18C3 26.25 9.75 33 18 33Z" fill="#F1F0F5"/>
<path d="M13.7549 22.2451L22.2449 13.7551" stroke="#1D1D2C" stroke-width="2.25" stroke-linecap="round" stroke-linejoin="round"/>
<path d="M22.2449 22.2451L13.7549 13.7551" stroke="#1D1D2C" stroke-width="2.25" stroke-linecap="round" stroke-linejoin="round"/>
</svg>
