<svg width="24" height="24" viewBox="0 0 24 24" fill="none" xmlns="http://www.w3.org/2000/svg">
<g clip-path="url(#clip0_1423_28124)">
<rect x="1" y="1" width="22" height="22" rx="7" fill="#55EFC4"/>
<path d="M9.2487 21.1673H14.7487C19.332 21.1673 21.1654 19.334 21.1654 14.7507V9.25065C21.1654 4.66732 19.332 2.83398 14.7487 2.83398H9.2487C4.66536 2.83398 2.83203 4.66732 2.83203 9.25065V14.7507C2.83203 19.334 4.66536 21.1673 9.2487 21.1673Z" fill="#55EFC4"/>
<path d="M8.10547 12.0004L10.6996 14.5946L15.8971 9.40625" fill="#55EFC4"/>
<path d="M8.10547 12.0004L10.6996 14.5946L15.8971 9.40625" stroke="white" stroke-width="1.6875" stroke-linecap="round" stroke-linejoin="round"/>
</g>
<rect x="1" y="1" width="22" height="22" rx="7" stroke="#55EFC4" stroke-width="2"/>
<defs>
<clipPath id="clip0_1423_28124">
<rect x="1" y="1" width="22" height="22" rx="7" fill="white"/>
</clipPath>
</defs>
</svg>
